max_depth,n_estimators,min_samples_split,class_weight,max_featuresvroc_auc,vprecision,vrecall,vf1,vfp,vfn,troc_auc,tprecision,trecall,tf1,tfp,tfn
,1,"{0: 1, 1: 1}",5,20,0.879656401131,0.738592935533,0.755761116521,0.746327436634,20.4,20.0,0.86851980047,0.79347826087,0.737373737374,0.764397905759,19,26
sqrt,1,"{0: 1, 1: 1}",5,20,0.875368052995,0.785981963242,0.709931840312,0.745497240955,17.6,21.4,0.8634253301,0.75,0.727272727273,0.738461538462,24,27
log2,1,"{0: 1, 1: 1}",5,20,0.856832957027,0.737742805617,0.692015579357,0.711848475245,21.8,24.8,0.848282608012,0.75,0.69696969697,0.722513089005,23,30
,1,"{0: 0.5, 1: 2}",5,20,0.866247494187,0.76349337595,0.720188250568,0.740653571559,18.2,20.0,0.893693188147,0.735849056604,0.787878787879,0.760975609756,28,21
sqrt,1,"{0: 0.5, 1: 2}",5,20,0.872865112949,0.717821699002,0.748263550795,0.732450234926,26.0,21.2,0.873420823432,0.672727272727,0.747474747475,0.708133971292,36,25
log2,1,"{0: 0.5, 1: 2}",5,20,0.875098907997,0.68232870186,0.742973060695,0.710850975312,28.8,21.8,0.883530626597,0.684684684685,0.767676767677,0.72380952381,35,23
,1,"{0: 0.75, 1: 1.5}",5,20,0.870759435965,0.75157310222,0.742973060695,0.745437121223,25.8,19.2,0.878673568955,0.852272727273,0.757575757576,0.802139037433,13,24
sqrt,1,"{0: 0.75, 1: 1.5}",5,20,0.866572043539,0.698266444509,0.730217461863,0.71350449792,20.8,22.4,0.848221056564,0.69696969697,0.69696969697,0.69696969697,30,30
log2,1,"{0: 0.75, 1: 1.5}",5,20,0.853240665975,0.748097514344,0.709834469328,0.728103120208,26.4,24.4,0.853245182422,0.679611650485,0.707070707071,0.693069306931,33,29
,1,"{0: 1, 1: 1}",10,20,0.878912534636,0.75886608786,0.722525154171,0.739436696788,19.6,18.0,0.838164011783,0.728260869565,0.676767676768,0.701570680628,25,32
sqrt,1,"{0: 1, 1: 1}",10,20,0.865515811179,0.771693321744,0.686854917235,0.725260024513,16.8,28.2,0.858374825049,0.747368421053,0.717171717172,0.731958762887,24,28
log2,1,"{0: 1, 1: 1}",10,20,0.870005400251,0.77185402669,0.687049659202,0.726023526346,16.0,22.8,0.868458249022,0.737373737374,0.737373737374,0.737373737374,26,26
,1,"{0: 0.5, 1: 2}",10,20,0.894979182825,0.72235792079,0.773482635508,0.745975225226,22.2,19.6,0.888581131648,0.6875,0.777777777778,0.729857819905,35,22
sqrt,1,"{0: 0.5, 1: 2}",10,20,0.887447232453,0.658632667026,0.75829276209,0.704504419576,34.0,19.8,0.863407743972,0.734693877551,0.727272727273,0.730964467005,26,27
log2,1,"{0: 0.5, 1: 2}",10,20,0.873770309379,0.6413804481,0.738039597533,0.684885698309,30.8,20.4,0.863337399459,0.679245283019,0.727272727273,0.70243902439,34,27
,1,"{0: 0.75, 1: 1.5}",10,20,0.874887760186,0.76268018018,0.748068808828,0.754913866024,22.0,19.6,0.873526340201,0.755102040816,0.747474747475,0.751269035533,24,25
sqrt,1,"{0: 0.75, 1: 1.5}",10,20,0.875447077121,0.741900875523,0.743005517689,0.741778159127,20.6,20.4,0.838146425655,0.712765957447,0.676767676768,0.694300518135,27,32
log2,1,"{0: 0.75, 1: 1.5}",10,20,0.860822106779,0.723066098081,0.707465108731,0.713894010848,24.0,20.4,0.873455995688,0.698113207547,0.747474747475,0.721951219512,32,25
,1,"{0: 1, 1: 1}",15,20,0.892406579737,0.793836888599,0.740506329114,0.765529219066,17.8,21.2,0.863451709292,0.774193548387,0.727272727273,0.75,21,27
sqrt,1,"{0: 1, 1: 1}",15,20,0.884350673116,0.796217644602,0.709899383317,0.74860220902,13.0,26.2,0.848370538652,0.841463414634,0.69696969697,0.762430939227,13,30
log2,1,"{0: 1, 1: 1}",15,20,0.892955587637,0.743721457705,0.717364492048,0.729606808194,18.0,23.0,0.823153185656,0.876712328767,0.646464646465,0.744186046512,9,35
,1,"{0: 0.5, 1: 2}",15,20,0.883968863787,0.714856267265,0.758325219085,0.735817078649,26.2,18.2,0.898655762557,0.675213675214,0.79797979798,0.731481481481,38,20
sqrt,1,"{0: 0.5, 1: 2}",15,20,0.859773997849,0.662799023698,0.740441415125,0.698255284704,32.0,20.4,0.873403237304,0.660714285714,0.747474747475,0.701421800948,38,25
log2,1,"{0: 0.5, 1: 2}",15,20,0.886569083115,0.595566576562,0.727977929244,0.654847355034,33.6,18.2,0.863354985587,0.692307692308,0.727272727273,0.709359605911,32,27
,1,"{0: 0.75, 1: 1.5}",15,20,0.885225754875,0.722972525919,0.760791950665,0.73945170669,17.0,19.8,0.878524086867,0.714285714286,0.757575757576,0.735294117647,30,24
sqrt,1,"{0: 0.75, 1: 1.5}",15,20,0.891579828076,0.75589447988,0.733008763389,0.74297986137,19.6,21.0,0.833131092861,0.741573033708,0.666666666667,0.702127659574,23,33
log2,1,"{0: 0.75, 1: 1.5}",15,20,0.873960802198,0.706326241135,0.722752353132,0.713155664223,22.6,19.6,0.838120046463,0.690721649485,0.676767676768,0.683673469388,30,32
,1,"{0: 1, 1: 1}",20,20,0.901405763489,0.734622088192,0.7429406037,0.738488715289,19.2,19.6,0.848326573332,0.793103448276,0.69696969697,0.741935483871,18,30
sqrt,1,"{0: 1, 1: 1}",20,20,0.89224801019,0.792301232492,0.684323271665,0.730982497003,16.4,24.4,0.833183851245,0.795180722892,0.666666666667,0.725274725275,17,33
log2,1,"{0: 1, 1: 1}",20,20,0.875983966369,0.802254154952,0.626095423564,0.700754846534,16.0,23.6,0.868554972726,0.829545454545,0.737373737374,0.780748663102,15,26
,1,"{0: 0.5, 1: 2}",20,20,0.89371968556,0.735069611966,0.770918532944,0.750787413504,21.0,19.0,0.87835701865,0.604838709677,0.757575757576,0.67264573991,49,24
sqrt,1,"{0: 0.5, 1: 2}",20,20,0.888844487259,0.64539001819,0.765920155794,0.69753545152,32.4,18.8,0.838102460335,0.676767676768,0.676767676768,0.676767676768,32,32
log2,1,"{0: 0.5, 1: 2}",20,20,0.862649531865,0.719785602504,0.717494320026,0.717075694362,26.2,18.8,0.873376858112,0.64347826087,0.747474747475,0.691588785047,41,25
,1,"{0: 0.75, 1: 1.5}",20,20,0.890293579128,0.744143769867,0.765920155794,0.752423796285,19.2,17.6,0.873517547137,0.747474747475,0.747474747475,0.747474747475,25,25
sqrt,1,"{0: 0.75, 1: 1.5}",20,20,0.88750640262,0.742610230871,0.745537163259,0.742432323687,17.8,19.8,0.888660269224,0.747572815534,0.777777777778,0.762376237624,26,22
log2,1,"{0: 0.75, 1: 1.5}",20,20,0.893948335317,0.750566535767,0.725154170724,0.735582336194,21.0,20.6,0.863522053804,0.847058823529,0.727272727273,0.782608695652,13,27
,1,"{0: 1, 1: 1}",25,20,0.907080600096,0.766403508772,0.72259006816,0.74184929354,14.0,20.8,0.848282608012,0.75,0.69696969697,0.722513089005,23,30
sqrt,1,"{0: 1, 1: 1}",25,20,0.874900023826,0.739057678869,0.694612138916,0.71170721664,16.2,25.4,0.81811147367,0.887323943662,0.636363636364,0.741176470588,8,36
log2,1,"{0: 1, 1: 1}",25,20,0.891424083999,0.799157001629,0.69688412853,0.739354318453,14.6,24.0,0.833139885925,0.75,0.666666666667,0.705882352941,22,33
,1,"{0: 0.5, 1: 2}",25,20,0.882614984648,0.716681808968,0.748101265823,0.731822765991,21.8,16.6,0.883609764174,0.745098039216,0.767676767677,0.756218905473,26,23
sqrt,1,"{0: 0.5, 1: 2}",25,20,0.895287715866,0.603702437913,0.76082440766,0.668582540638,28.2,18.4,0.878453742355,0.663716814159,0.757575757576,0.707547169811,38,24
log2,1,"{0: 0.5, 1: 2}",25,20,0.899141252016,0.669687011346,0.74040895813,0.699263708248,27.2,18.2,0.868291180805,0.618644067797,0.737373737374,0.672811059908,45,26
,1,"{0: 0.75, 1: 1.5}",25,20,0.887027400209,0.769603199006,0.753067185979,0.760054867514,24.2,19.8,0.883557005789,0.703703703704,0.767676767677,0.734299516908,32,23
sqrt,1,"{0: 0.75, 1: 1.5}",25,20,0.875419982122,0.747107860636,0.743070431678,0.743794665907,21.2,20.8,0.868352732254,0.657657657658,0.737373737374,0.695238095238,38,26
log2,1,"{0: 0.75, 1: 1.5}",25,20,0.885998884461,0.658742458058,0.738007140539,0.695352734155,22.8,22.6,0.843240896026,0.755555555556,0.686868686869,0.719576719577,22,31
,1,"{0: 1, 1: 1}",30,20,0.903440811201,0.780128682267,0.753067185979,0.763841861006,18.6,20.4,0.863522053804,0.847058823529,0.727272727273,0.782608695652,13,27
sqrt,1,"{0: 1, 1: 1}",30,20,0.905672072104,0.772283222582,0.674456345342,0.718617414578,18.2,25.2,0.843284861346,0.8,0.686868686869,0.739130434783,17,31
log2,1,"{0: 1, 1: 1}",30,20,0.900174269684,0.777493561962,0.661246348588,0.711385737167,16.4,23.4,0.818076301413,0.84,0.636363636364,0.724137931034,12,36
,1,"{0: 0.5, 1: 2}",30,20,0.896621809373,0.683128028898,0.742843232717,0.709662769619,20.2,19.2,0.893701981211,0.742857142857,0.787878787879,0.764705882353,27,21
sqrt,1,"{0: 0.5, 1: 2}",30,20,0.904016997635,0.663976348854,0.799091204154,0.724322537634,29.0,17.8,0.883636143366,0.767676767677,0.767676767677,0.767676767677,23,23
log2,1,"{0: 0.5, 1: 2}",30,20,0.904101218773,0.633787144755,0.781337228173,0.698866717719,31.0,19.8,0.873552719393,0.778947368421,0.747474747475,0.762886597938,21,25
,1,"{0: 0.75, 1: 1.5}",30,20,0.885941551849,0.71992784471,0.7429406037,0.729008022165,23.4,18.2,0.883662522558,0.791666666667,0.767676767677,0.779487179487,20,23
sqrt,1,"{0: 0.75, 1: 1.5}",30,20,0.896710552277,0.745082917368,0.720253164557,0.731595754758,16.8,21.6,0.868423076766,0.708737864078,0.737373737374,0.722772277228,30,26
log2,1,"{0: 0.75, 1: 1.5}",30,20,0.884466765252,0.712317351598,0.699805258033,0.704657996359,20.0,21.2,0.863398950908,0.727272727273,0.727272727273,0.727272727273,27,27
,1,"{0: 1, 1: 1}",35,20,0.905050190229,0.760166082192,0.753326841934,0.756236722099,19.2,22.0,0.843223309898,0.739130434783,0.686868686869,0.712041884817,24,31
sqrt,1,"{0: 1, 1: 1}",35,20,0.904650986388,0.781035731007,0.664199935086,0.714878440524,15.8,23.6,0.777628295689,0.763888888889,0.555555555556,0.643274853801,17,44
log2,1,"{0: 1, 1: 1}",35,20,0.897016713442,0.816107282094,0.666536838689,0.731521582139,17.8,25.4,0.853394664511,0.813953488372,0.707070707071,0.756756756757,16,29
,1,"{0: 0.5, 1: 2}",35,20,0.896693948764,0.696747369987,0.773612463486,0.732160035087,28.8,16.4,0.888510787136,0.641666666667,0.777777777778,0.703196347032,43,22
sqrt,1,"{0: 0.5, 1: 2}",35,20,0.906599599162,0.667881758764,0.786432976306,0.721374589427,27.2,18.0,0.863267054947,0.631578947368,0.727272727273,0.676056338028,42,27
log2,1,"{0: 0.5, 1: 2}",35,20,0.909507233971,0.6603914854,0.771048360922,0.710324769684,39.6,19.6,0.888537166328,0.65811965812,0.777777777778,0.712962962963,40,22
,1,"{0: 0.75, 1: 1.5}",35,20,0.892359456599,0.717282003509,0.750535540409,0.732425008717,18.0,21.4,0.878664775891,0.842696629213,0.757575757576,0.797872340426,14,24
sqrt,1,"{0: 0.75, 1: 1.5}",35,20,0.899124177117,0.747973329806,0.725283998702,0.735035437762,19.2,20.0,0.883618557238,0.752475247525,0.767676767677,0.76,25,23
log2,1,"{0: 0.75, 1: 1.5}",35,20,0.902304045198,0.696828965986,0.730347289841,0.710851468311,23.2,19.8,0.807940119056,0.792207792208,0.616161616162,0.693181818182,16,38
,1,"{0: 1, 1: 1}",40,20,0.899266664267,0.811084918499,0.732814021422,0.769252975452,18.2,18.8,0.873543926329,0.770833333333,0.747474747475,0.758974358974,22,25
sqrt,1,"{0: 1, 1: 1}",40,20,0.916216708704,0.749343981661,0.69217786433,0.719101781003,15.6,22.4,0.838207977103,0.770114942529,0.676767676768,0.720430107527,20,32
log2,1,"{0: 1, 1: 1}",40,20,0.904546228752,0.790422343807,0.682148653035,0.730014657962,21.6,26.0,0.868537386598,0.811111111111,0.737373737374,0.772486772487,17,26
,1,"{0: 0.5, 1: 2}",40,20,0.900949624721,0.72051006351,0.783739045764,0.75013568555,23.2,17.4,0.913930380605,0.77358490566,0.828282828283,0.8,24,17
sqrt,1,"{0: 0.5, 1: 2}",40,20,0.900358655978,0.641378092592,0.786400519312,0.705741748827,32.4,18.0,0.888625096968,0.719626168224,0.777777777778,0.747572815534,30,22
log2,1,"{0: 0.5, 1: 2}",40,20,0.897697181932,0.693824044916,0.765920155794,0.726047660327,33.8,21.0,0.868273594677,0.608333333333,0.737373737374,0.666666666667,47,26
,1,"{0: 0.75, 1: 1.5}",40,20,0.910982537592,0.737557440573,0.755533917559,0.745293740725,24.0,19.0,0.878559259123,0.742574257426,0.757575757576,0.75,26,24
sqrt,1,"{0: 0.75, 1: 1.5}",40,20,0.906607393652,0.713492906223,0.743070431678,0.725657568778,18.8,22.2,0.82803662249,0.698924731183,0.656565656566,0.677083333333,28,34
log2,1,"{0: 0.75, 1: 1.5}",40,20,0.906166754169,0.72558266391,0.735150925024,0.728996288984,24.4,22.0,0.802889614006,0.789473684211,0.606060606061,0.685714285714,16,39
,1,"{0: 1, 1: 1}",45,20,0.909213511397,0.756110787872,0.684518013632,0.716731924478,16.4,21.4,0.873561512457,0.787234042553,0.747474747475,0.766839378238,20,25
sqrt,1,"{0: 1, 1: 1}",45,20,0.913795414093,0.834583316214,0.661603375527,0.73620325157,16.4,23.8,0.838216770167,0.779069767442,0.676767676768,0.724324324324,19,32
log2,1,"{0: 1, 1: 1}",45,20,0.886775938504,0.790052905687,0.65641025641,0.713288453836,19.8,24.4,0.802915993198,0.821917808219,0.606060606061,0.697674418605,13,39
,1,"{0: 0.5, 1: 2}",45,20,0.913086713217,0.73051665902,0.778610840636,0.753071971781,23.4,18.0,0.858374825049,0.747368421053,0.717171717172,0.731958762887,24,28
sqrt,1,"{0: 0.5, 1: 2}",45,20,0.905339291107,0.669504771957,0.761019149627,0.706901237318,31.0,20.2,0.883618557238,0.752475247525,0.767676767677,0.76,25,23
log2,1,"{0: 0.5, 1: 2}",45,20,0.902772940903,0.654791930937,0.773709834469,0.708746183676,34.8,17.4,0.863311020267,0.660550458716,0.727272727273,0.692307692308,37,27
,1,"{0: 0.75, 1: 1.5}",45,20,0.910906166416,0.730985512319,0.760597208698,0.740677400197,18.8,18.6,0.858462755689,0.835294117647,0.717171717172,0.771739130435,14,28
sqrt,1,"{0: 0.75, 1: 1.5}",45,20,0.900253743651,0.686883754639,0.745537163259,0.710250214557,22.6,19.2,0.818032336093,0.7875,0.636363636364,0.703910614525,17,36
log2,1,"{0: 0.75, 1: 1.5}",45,20,0.912009749948,0.726426835742,0.742973060695,0.733473889819,21.8,24.2,0.848265021884,0.734042553191,0.69696969697,0.715025906736,25,30
,1,"{0: 1, 1: 1}",50,20,0.905011392956,0.76832428295,0.674196689387,0.716718777673,19.2,21.8,0.848335366396,0.802325581395,0.69696969697,0.745945945946,17,30
sqrt,1,"{0: 1, 1: 1}",50,20,0.905046238733,0.805002160224,0.730249918858,0.761882290252,12.8,19.2,0.878629603635,0.806451612903,0.757575757576,0.78125,18,24
log2,1,"{0: 1, 1: 1}",50,20,0.903909184363,0.711284398871,0.671502758845,0.685168311656,15.2,28.6,0.853359492255,0.777777777778,0.707070707071,0.740740740741,20,29
,1,"{0: 0.5, 1: 2}",50,20,0.902937467708,0.709861173914,0.793833171048,0.748033436748,24.6,16.6,0.863442916228,0.765957446809,0.727272727273,0.746113989637,22,27
sqrt,1,"{0: 0.5, 1: 2}",50,20,0.905143953775,0.689511937365,0.796592015579,0.737666840988,37.8,17.6,0.888598717776,0.7,0.777777777778,0.736842105263,33,22
log2,1,"{0: 0.5, 1: 2}",50,20,0.892847105823,0.64762617817,0.760986692632,0.69810177772,36.0,18.8,0.858330859729,0.71,0.717171717172,0.713567839196,29,28
,1,"{0: 0.75, 1: 1.5}",50,20,0.898118529516,0.738797277051,0.737682570594,0.737100405712,21.4,18.6,0.84320572377,0.723404255319,0.686868686869,0.704663212435,26,31
sqrt,1,"{0: 0.75, 1: 1.5}",50,20,0.90776518978,0.723598714966,0.740441415125,0.729664814618,23.4,21.6,0.878541672995,0.728155339806,0.757575757576,0.742574257426,28,24
log2,1,"{0: 0.75, 1: 1.5}",50,20,0.906081262623,0.693763388256,0.750697825381,0.719232519424,26.6,22.4,0.843267275218,0.781609195402,0.686868686869,0.731182795699,19,31
,1,"{0: 1, 1: 1}",55,20,0.915352706913,0.707280733932,0.750730282376,0.727606338832,24.4,20.0,0.817935612389,0.692307692308,0.636363636364,0.663157894737,28,36
sqrt,1,"{0: 1, 1: 1}",55,20,0.891022527242,0.763202311944,0.699740344044,0.726692574664,17.0,22.6,0.863460502356,0.782608695652,0.727272727273,0.753926701571,20,27
log2,1,"{0: 1, 1: 1}",55,20,0.910887749375,0.773724313661,0.653975981824,0.703004314118,21.6,25.2,0.833166265117,0.776470588235,0.666666666667,0.717391304348,19,33
,1,"{0: 0.5, 1: 2}",55,20,0.90225515443,0.654311239991,0.793930542032,0.715626947408,34.8,15.6,0.893728360403,0.764705882353,0.787878787879,0.776119402985,24,21
sqrt,1,"{0: 0.5, 1: 2}",55,20,0.905211801446,0.655382503155,0.773612463486,0.708364154333,33.2,18.6,0.843152965385,0.68,0.686868686869,0.683417085427,32,31
log2,1,"{0: 0.5, 1: 2}",55,20,0.904444422782,0.682908154488,0.771080817916,0.723700418822,33.8,18.2,0.888537166328,0.65811965812,0.777777777778,0.712962962963,40,22
,1,"{0: 0.75, 1: 1.5}",55,20,0.906752621361,0.752215183191,0.7429406037,0.746884086929,27.2,18.6,0.863478088484,0.8,0.727272727273,0.761904761905,18,27
sqrt,1,"{0: 0.75, 1: 1.5}",55,20,0.902531530393,0.721302342165,0.720285621551,0.719877156481,32.0,19.8,0.878585638315,0.765306122449,0.757575757576,0.761421319797,23,24
log2,1,"{0: 0.75, 1: 1.5}",55,20,0.914161933042,0.700286115119,0.704479065239,0.693880475674,29.0,21.8,0.863390157843,0.72,0.727272727273,0.723618090452,28,27
,1,"{0: 1, 1: 1}",60,20,0.919155686791,0.756612778532,0.64105809802,0.68927355862,15.0,22.8,0.878506500739,0.700934579439,0.757575757576,0.728155339806,32,24
sqrt,1,"{0: 1, 1: 1}",60,20,0.914186596711,0.784371118264,0.682181110029,0.728367015337,21.2,25.2,0.858471548753,0.845238095238,0.717171717172,0.775956284153,13,28
log2,1,"{0: 1, 1: 1}",60,20,0.912359780855,0.728284660785,0.65894190198,0.684541635751,15.6,24.0,0.848370538652,0.841463414634,0.69696969697,0.762430939227,13,30
,1,"{0: 0.5, 1: 2}",60,20,0.910615607334,0.742658527065,0.77617656605,0.757616535401,27.0,16.2,0.898629383365,0.658333333333,0.79797979798,0.721461187215,41,20
sqrt,1,"{0: 0.5, 1: 2}",60,20,0.898760793271,0.656716196425,0.76611489776,0.70455701532,24.2,18.6,0.873464788752,0.704761904762,0.747474747475,0.725490196078,31,25
log2,1,"{0: 0.5, 1: 2}",60,20,0.8987392272,0.643004429737,0.765952612788,0.697235051901,31.2,19.4,0.888642683096,0.733333333333,0.777777777778,0.754901960784,28,22
,1,"{0: 0.75, 1: 1.5}",60,20,0.913032341637,0.696090336315,0.791301525479,0.73905421108,25.8,19.0,0.898761279325,0.752380952381,0.79797979798,0.774509803922,26,20
sqrt,1,"{0: 0.75, 1: 1.5}",60,20,0.906416454481,0.703420976188,0.748003894839,0.723593551766,23.4,19.6,0.8634253301,0.75,0.727272727273,0.738461538462,24,27
log2,1,"{0: 0.75, 1: 1.5}",60,20,0.87933338994,0.734116411029,0.676630963973,0.702389377571,25.4,22.4,0.833078334476,0.694736842105,0.666666666667,0.680412371134,29,33
,1,"{0: 1, 1: 1}",65,20,0.907879931501,0.725098039216,0.755696202532,0.737426546056,18.0,19.8,0.888642683096,0.733333333333,0.777777777778,0.754901960784,28,22
sqrt,1,"{0: 1, 1: 1}",65,20,0.916276251863,0.781422551609,0.740311587147,0.755387557228,16.8,23.0,0.833166265117,0.776470588235,0.666666666667,0.717391304348,19,33
log2,1,"{0: 1, 1: 1}",65,20,0.903229307292,0.771954364522,0.692048036352,0.726305225706,18.8,22.2,0.853429836767,0.853658536585,0.707070707071,0.773480662983,12,29
,1,"{0: 0.5, 1: 2}",65,20,0.901601209791,0.727825828953,0.788769879909,0.75518811781,34.6,16.8,0.893587671378,0.661016949153,0.787878787879,0.718894009217,40,21
sqrt,1,"{0: 0.5, 1: 2}",65,20,0.907587126521,0.62458929582,0.768419344369,0.688224215844,23.4,18.0,0.873359271984,0.632478632479,0.747474747475,0.685185185185,43,25
log2,1,"{0: 0.5, 1: 2}",65,20,0.908443702403,0.647015409,0.750697825381,0.693190819826,40.2,19.4,0.863038435282,0.514285714286,0.727272727273,0.602510460251,68,27
,1,"{0: 0.75, 1: 1.5}",65,20,0.916823506538,0.679733821206,0.783803959753,0.727851516899,23.8,18.2,0.873473581816,0.711538461538,0.747474747475,0.729064039409,30,25
sqrt,1,"{0: 0.75, 1: 1.5}",65,20,0.905771775308,0.726773075814,0.763518338202,0.743901454829,24.6,20.4,0.853324319999,0.744680851064,0.707070707071,0.725388601036,24,29
log2,1,"{0: 0.75, 1: 1.5}",65,20,0.911545096938,0.714089760142,0.732846478416,0.716017911693,28.6,20.0,0.888633890032,0.72641509434,0.777777777778,0.751219512195,29,22
,1,"{0: 1, 1: 1}",70,20,0.921845441965,0.734675104672,0.720155793574,0.725774439298,17.2,24.0,0.873570305521,0.795698924731,0.747474747475,0.770833333333,19,25
sqrt,1,"{0: 1, 1: 1}",70,20,0.908976856059,0.788103285428,0.651346965271,0.70897755276,15.8,24.4,0.853350699191,0.769230769231,0.707070707071,0.736842105263,21,29
log2,1,"{0: 1, 1: 1}",70,20,0.914071290679,0.768154432441,0.666407010711,0.704626157915,14.8,28.8,0.848291401076,0.758241758242,0.69696969697,0.726315789474,22,30
,1,"{0: 0.5, 1: 2}",70,20,0.909098239305,0.687731132321,0.776111652061,0.728602437576,36.6,15.6,0.86843186983,0.71568627451,0.737373737374,0.726368159204,29,26
sqrt,1,"{0: 0.5, 1: 2}",70,20,0.903839169347,0.643911342223,0.768451801363,0.699660170161,32.0,17.8,0.8885195802,0.647058823529,0.777777777778,0.706422018349,42,22
log2,1,"{0: 0.5, 1: 2}",70,20,0.898205265357,0.613992036991,0.770886075949,0.682405854895,31.4,18.6,0.903794198248,0.740740740741,0.808080808081,0.772946859903,28,19
,1,"{0: 0.75, 1: 1.5}",70,20,0.91217608634,0.720588333585,0.783803959753,0.749308573187,23.8,17.6,0.853394664511,0.813953488372,0.707070707071,0.756756756757,16,29
sqrt,1,"{0: 0.75, 1: 1.5}",70,20,0.912901157664,0.743142195857,0.72541382668,0.732850171079,24.2,19.2,0.863460502356,0.782608695652,0.727272727273,0.753926701571,20,27
log2,1,"{0: 0.75, 1: 1.5}",70,20,0.901134980691,0.729305600951,0.692080493346,0.708792133742,20.2,22.2,0.828142139258,0.802469135802,0.656565656566,0.722222222222,16,34
,1,"{0: 1, 1: 1}",75,20,0.914866585906,0.747931116519,0.755923401493,0.751099085973,20.8,23.4,0.863434123164,0.757894736842,0.727272727273,0.742268041237,23,27
sqrt,1,"{0: 1, 1: 1}",75,20,0.917179123946,0.744024924355,0.67870821162,0.697935714697,18.6,19.4,0.828106967002,0.764705882353,0.656565656566,0.70652173913,20,34
log2,1,"{0: 1, 1: 1}",75,20,0.899501913262,0.751559454191,0.63605972087,0.684936064501,18.6,21.6,0.737285806733,0.824561403509,0.474747474747,0.602564102564,10,52
,1,"{0: 0.5, 1: 2}",75,20,0.909042341459,0.621595451975,0.78623823434,0.691148188452,28.8,16.6,0.898708520941,0.711711711712,0.79797979798,0.752380952381,32,20
sqrt,1,"{0: 0.5, 1: 2}",75,20,0.921504285119,0.667044756804,0.801557935735,0.722815800034,27.2,15.8,0.88856354552,0.675438596491,0.777777777778,0.723004694836,37,22
log2,1,"{0: 0.5, 1: 2}",75,20,0.910212603057,0.662801326238,0.748003894839,0.700444682379,39.8,18.6,0.858216549897,0.628318584071,0.717171717172,0.669811320755,42,28
,1,"{0: 0.75, 1: 1.5}",75,20,0.908963191856,0.703632093697,0.791333982473,0.742881124926,35.8,18.0,0.858269308281,0.663551401869,0.717171717172,0.68932038835,36,28
sqrt,1,"{0: 0.75, 1: 1.5}",75,20,0.914146670035,0.703618521033,0.748263550795,0.723970256092,26.4,20.4,0.84830019414,0.766666666667,0.69696969697,0.730158730159,21,30
log2,1,"{0: 0.75, 1: 1.5}",75,20,0.896912372103,0.705209448481,0.702304446608,0.699146910336,21.8,19.8,0.848370538652,0.841463414634,0.69696969697,0.762430939227,13,30
,1,"{0: 1, 1: 1}",80,20,0.924049072189,0.763335518283,0.699383317105,0.725492208686,17.6,24.2,0.853350699191,0.769230769231,0.707070707071,0.736842105263,21,29
sqrt,1,"{0: 1, 1: 1}",80,20,0.912059524766,0.743102760222,0.68935410581,0.712070583676,22.6,22.2,0.802845648686,0.740740740741,0.606060606061,0.666666666667,21,39
log2,1,"{0: 1, 1: 1}",80,20,0.885147939325,0.755557438896,0.697435897436,0.724838272372,24.4,24.6,0.828142139258,0.802469135802,0.656565656566,0.722222222222,16,34
,1,"{0: 0.5, 1: 2}",80,20,0.907789197113,0.659076310688,0.765887698799,0.707715977363,29.8,16.2,0.903618336967,0.625,0.808080808081,0.704845814978,48,19
sqrt,1,"{0: 0.5, 1: 2}",80,20,0.911069624945,0.686729810717,0.755663745537,0.716256831617,30.8,17.0,0.888642683096,0.733333333333,0.777777777778,0.754901960784,28,22
log2,1,"{0: 0.5, 1: 2}",80,20,0.893658516394,0.643539621318,0.717461863031,0.67327356643,28.4,18.6,0.883170110972,0.5,0.767676767677,0.605577689243,76,23
,1,"{0: 0.75, 1: 1.5}",80,20,0.905219970577,0.647658581648,0.758390133074,0.696441197632,30.0,19.2,0.883609764174,0.745098039216,0.767676767677,0.756218905473,26,23
sqrt,1,"{0: 0.75, 1: 1.5}",80,20,0.91291521293,0.736268837101,0.702336903603,0.718276257904,25.2,21.0,0.858366031985,0.739583333333,0.717171717172,0.728205128205,25,28
log2,1,"{0: 0.75, 1: 1.5}",80,20,0.895069949139,0.705509755711,0.758422590068,0.728653182848,26.0,20.2,0.888677855352,0.762376237624,0.777777777778,0.77,24,22
,1,"{0: 1, 1: 1}",85,20,0.909874712651,0.730670644029,0.71535215839,0.721972910611,16.2,24.2,0.863372571715,0.705882352941,0.727272727273,0.716417910448,30,27
sqrt,1,"{0: 1, 1: 1}",85,20,0.91246236495,0.768741750053,0.664167478092,0.711674408985,15.8,26.6,0.833175058181,0.785714285714,0.666666666667,0.72131147541,18,33
log2,1,"{0: 1, 1: 1}",85,20,0.918334928348,0.749686669356,0.699740344044,0.721961572623,15.0,19.4,0.81811147367,0.887323943662,0.636363636364,0.741176470588,8,36
,1,"{0: 0.5, 1: 2}",85,20,0.907793739442,0.655343830211,0.77617656605,0.706912497295,40.8,15.6,0.86843186983,0.71568627451,0.737373737374,0.726368159204,29,26
sqrt,1,"{0: 0.5, 1: 2}",85,20,0.91689200011,0.684798534799,0.778643297631,0.727504002171,36.6,18.8,0.878550466059,0.735294117647,0.757575757576,0.746268656716,27,24
log2,1,"{0: 0.5, 1: 2}",85,20,0.882648725584,0.622059042811,0.689840960727,0.653640329952,22.2,18.4,0.878427363163,0.646551724138,0.757575757576,0.697674418605,41,24
,1,"{0: 0.75, 1: 1.5}",85,20,0.916815063017,0.728815336054,0.743330087634,0.732723385585,23.8,19.2,0.893754739595,0.787878787879,0.787878787879,0.787878787879,21,21
sqrt,1,"{0: 0.75, 1: 1.5}",85,20,0.904814813746,0.668706543364,0.725283998702,0.692654908205,27.4,19.2,0.868537386598,0.811111111111,0.737373737374,0.772486772487,17,26
log2,1,"{0: 0.75, 1: 1.5}",85,20,0.913730817449,0.732792216524,0.714832846478,0.72187079705,15.6,22.8,0.817970784645,0.724137931034,0.636363636364,0.677419354839,24,36
,1,"{0: 1, 1: 1}",90,20,0.915313728608,0.748394289343,0.666407010711,0.692525969759,15.2,19.6,0.757408689359,0.728571428571,0.515151515152,0.603550295858,19,48
sqrt,1,"{0: 1, 1: 1}",90,20,0.919001536028,0.759055674783,0.724959428757,0.740406089668,17.8,27.2,0.813043382491,0.861111111111,0.626262626263,0.72514619883,10,37
log2,1,"{0: 1, 1: 1}",90,20,0.906694680878,0.75188034188,0.732911392405,0.740059162984,17.4,26.4,0.838269528551,0.8375,0.676767676768,0.748603351955,13,32
,1,"{0: 0.5, 1: 2}",90,20,0.912351951208,0.715044348938,0.79652710159,0.752620714482,40.0,16.2,0.903547992455,0.588235294118,0.808080808081,0.68085106383,56,19
sqrt,1,"{0: 0.5, 1: 2}",90,20,0.90865484389,0.67455931194,0.75546900357,0.712055390573,32.4,17.4,0.878550466059,0.735294117647,0.757575757576,0.746268656716,27,24
log2,1,"{0: 0.5, 1: 2}",90,20,0.913856054137,0.662554991708,0.763420967218,0.70890639605,36.6,17.2,0.873315306664,0.606557377049,0.747474747475,0.669683257919,48,25
,1,"{0: 0.75, 1: 1.5}",90,20,0.916682250874,0.720459579518,0.729957805907,0.721265271415,29.8,18.6,0.858295687473,0.682692307692,0.717171717172,0.699507389163,33,28
sqrt,1,"{0: 0.75, 1: 1.5}",90,20,0.918492521521,0.758375406456,0.735443037975,0.744637737968,25.2,23.6,0.853429836767,0.853658536585,0.707070707071,0.773480662983,12,29
log2,1,"{0: 0.75, 1: 1.5}",90,20,0.906837867336,0.706487365706,0.738429081467,0.71195841294,23.2,20.6,0.843276068282,0.790697674419,0.686868686869,0.735135135135,18,31
,1,"{0: 1, 1: 1}",95,20,0.921901199346,0.810164553986,0.615189873418,0.685140074383,16.4,25.8,0.853368285319,0.786516853933,0.707070707071,0.744680851064,19,29
sqrt,1,"{0: 1, 1: 1}",95,20,0.906128217348,0.75104221505,0.69246997728,0.719611956395,18.0,21.4,0.807896153736,0.743902439024,0.616161616162,0.674033149171,21,38
log2,1,"{0: 1, 1: 1}",95,20,0.910756935688,0.753037302483,0.71006166829,0.729395503087,17.4,20.2,0.812964244915,0.765432098765,0.626262626263,0.688888888889,19,37
,1,"{0: 0.5, 1: 2}",95,20,0.913389684494,0.634837343399,0.801622849724,0.706308315353,36.8,16.2,0.878471328483,0.675675675676,0.757575757576,0.714285714286,36,24
sqrt,1,"{0: 0.5, 1: 2}",95,20,0.908790487338,0.660105793909,0.78623823434,0.712513941383,33.2,17.6,0.88364493643,0.775510204082,0.767676767677,0.771573604061,22,23
log2,1,"{0: 0.5, 1: 2}",95,20,0.90900669448,0.616944623177,0.743200259656,0.671751702614,35.6,20.6,0.898523866596,0.598484848485,0.79797979798,0.683982683983,53,20
,1,"{0: 0.75, 1: 1.5}",95,20,0.919086729631,0.690802991999,0.765692956832,0.725008048329,31.2,20.2,0.893763532659,0.795918367347,0.787878787879,0.791878172589,20,21
sqrt,1,"{0: 0.75, 1: 1.5}",95,20,0.90509029216,0.719665497968,0.735183382019,0.720907469012,27.6,22.6,0.868484628214,0.760416666667,0.737373737374,0.748717948718,23,26
log2,1,"{0: 0.75, 1: 1.5}",95,20,0.911509036529,0.776388888889,0.69464459591,0.730858866076,24.0,24.2,0.82303008276,0.735632183908,0.646464646465,0.688172043011,23,35
,2,"{0: 1, 1: 1}",5,20,0.906790579588,0.884921462821,0.715222330412,0.790107233283,5.0,22.8,0.833219023501,0.835443037975,0.666666666667,0.741573033708,13,33
sqrt,2,"{0: 1, 1: 1}",5,20,0.90888428169,0.909412877991,0.676890619929,0.775503411972,5.8,25.2,0.828203690707,0.878378378378,0.656565656566,0.751445086705,9,34
log2,2,"{0: 1, 1: 1}",5,20,0.899410706535,0.915636086279,0.648685491723,0.758374557398,5.4,27.0,0.792876534545,0.90625,0.585858585859,0.711656441718,6,41
,2,"{0: 0.5, 1: 2}",5,20,0.898115575054,0.924313733872,0.692145407335,0.790880484337,7.0,24.6,0.833271781885,0.904109589041,0.666666666667,0.767441860465,7,33
sqrt,2,"{0: 0.5, 1: 2}",5,20,0.908880207094,0.928693391431,0.623271665044,0.744041156824,5.2,29.4,0.853482595151,0.921052631579,0.707070707071,0.8,6,29
log2,2,"{0: 0.5, 1: 2}",5,20,0.908242992299,0.90879989563,0.684388185654,0.780444203851,3.4,26.6,0.843399171178,0.944444444444,0.686868686869,0.795321637427,4,31
,2,"{0: 0.75, 1: 1.5}",5,20,0.903385546176,0.888310969868,0.692048036352,0.777799283787,4.6,24.8,0.853473802087,0.909090909091,0.707070707071,0.795454545455,7,29
sqrt,2,"{0: 0.75, 1: 1.5}",5,20,0.904482537397,0.905613535737,0.633722817267,0.744788679195,4.0,27.4,0.838348666128,0.943661971831,0.676767676768,0.788235294118,4,32
log2,2,"{0: 0.75, 1: 1.5}",5,20,0.891566984036,0.923038490832,0.669263226225,0.774584887216,5.0,29.2,0.813096140875,0.939393939394,0.626262626263,0.751515151515,4,37
,2,"{0: 1, 1: 1}",10,20,0.905952965552,0.886259258347,0.719961051607,0.794195977608,7.2,21.8,0.858489134882,0.865853658537,0.717171717172,0.78453038674,11,28
sqrt,2,"{0: 1, 1: 1}",10,20,0.916948998162,0.894265426195,0.709931840312,0.789439533634,4.8,23.8,0.84338158505,0.918918918919,0.686868686869,0.78612716763,6,31
log2,2,"{0: 1, 1: 1}",10,20,0.91762573138,0.91251653759,0.67147030185,0.769458679394,6.2,28.4,0.838287114679,0.858974358974,0.676767676768,0.757062146893,11,32
,2,"{0: 0.5, 1: 2}",10,20,0.904504630046,0.881583341176,0.722687439143,0.793822771306,9.2,22.0,0.853473802087,0.909090909091,0.707070707071,0.795454545455,7,29
sqrt,2,"{0: 0.5, 1: 2}",10,20,0.904226234653,0.873893866988,0.651346965271,0.74527002125,5.0,25.4,0.853482595151,0.921052631579,0.707070707071,0.8,6,29
log2,2,"{0: 0.5, 1: 2}",10,20,0.897651932631,0.90299708908,0.68211619604,0.775636466386,5.8,26.0,0.853491388215,0.933333333333,0.707070707071,0.804597701149,5,29
,2,"{0: 0.75, 1: 1.5}",10,20,0.901640303233,0.892653867102,0.722492697176,0.797254189749,7.4,23.4,0.843363998922,0.894736842105,0.686868686869,0.777142857143,8,31
sqrt,2,"{0: 0.75, 1: 1.5}",10,20,0.903497659369,0.916967910414,0.656345342421,0.763054517656,6.4,24.6,0.853456215959,0.886075949367,0.707070707071,0.786516853933,9,29
log2,2,"{0: 0.75, 1: 1.5}",10,20,0.901147940667,0.939409085095,0.70723790977,0.806115149442,5.6,25.4,0.858489134882,0.865853658537,0.717171717172,0.78453038674,11,28
,2,"{0: 1, 1: 1}",15,20,0.903331302857,0.852191206996,0.727685816293,0.783783574304,9.4,20.8,0.848396917845,0.873417721519,0.69696969697,0.775280898876,10,30
sqrt,2,"{0: 1, 1: 1}",15,20,0.910197128275,0.899372972726,0.704738721194,0.788791244507,7.2,24.0,0.8231180134,0.831168831169,0.646464646465,0.727272727273,13,35
log2,2,"{0: 1, 1: 1}",15,20,0.924672903017,0.865401559937,0.702596559559,0.775342142032,5.6,23.2,0.843328826666,0.85,0.686868686869,0.759776536313,12,31
,2,"{0: 0.5, 1: 2}",15,20,0.912022650326,0.880452339243,0.730217461863,0.797640849647,7.4,22.2,0.858524307138,0.910256410256,0.717171717172,0.802259887006,7,28
sqrt,2,"{0: 0.5, 1: 2}",15,20,0.905294157474,0.872916474399,0.714832846478,0.784252580193,6.4,24.8,0.858497927946,0.876543209877,0.717171717172,0.788888888889,10,28
log2,2,"{0: 0.5, 1: 2}",15,20,0.904665295199,0.858078273302,0.681694255112,0.75563574225,6.4,23.4,0.86351326074,0.837209302326,0.727272727273,0.778378378378,14,27
,2,"{0: 0.75, 1: 1.5}",15,20,0.910579426551,0.900258511365,0.712366114898,0.793500149816,8.0,21.6,0.838313493872,0.893333333333,0.676767676768,0.770114942529,8,32
sqrt,2,"{0: 0.75, 1: 1.5}",15,20,0.916339234569,0.891089067666,0.709899383317,0.789596261329,9.0,22.2,0.823153185656,0.876712328767,0.646464646465,0.744186046512,9,35
log2,2,"{0: 0.75, 1: 1.5}",15,20,0.917418021694,0.862267630962,0.689678675755,0.765884844204,7.4,22.4,0.828212483771,0.890410958904,0.656565656566,0.755813953488,8,34
,2,"{0: 1, 1: 1}",20,20,0.916572582588,0.918361773091,0.740603700097,0.819546421304,9.4,19.4,0.888818544377,0.905882352941,0.777777777778,0.836956521739,8,22
sqrt,2,"{0: 1, 1: 1}",20,20,0.91399544408,0.889895817976,0.707400194742,0.787559175991,6.2,24.0,0.853447422895,0.875,0.707070707071,0.782122905028,10,29
log2,2,"{0: 1, 1: 1}",20,20,0.913011669398,0.872359669361,0.717364492048,0.784869667895,7.2,24.4,0.868607731111,0.890243902439,0.737373737374,0.806629834254,9,26
,2,"{0: 0.5, 1: 2}",20,20,0.917595853774,0.860658429756,0.76835443038,0.810881676933,9.2,20.2,0.853482595151,0.921052631579,0.707070707071,0.8,6,29
sqrt,2,"{0: 0.5, 1: 2}",20,20,0.927558873141,0.84501120193,0.707594936709,0.769045993181,9.4,22.0,0.833271781885,0.904109589041,0.666666666667,0.767441860465,7,33
log2,2,"{0: 0.5, 1: 2}",20,20,0.920899398296,0.844174515825,0.733008763389,0.784107138443,8.8,21.4,0.818085094477,0.851351351351,0.636363636364,0.728323699422,11,36
,2,"{0: 0.75, 1: 1.5}",20,20,0.914496947053,0.901321117076,0.748003894839,0.815280941494,7.8,19.0,0.868590144983,0.869047619048,0.737373737374,0.79781420765,11,26
sqrt,2,"{0: 0.75, 1: 1.5}",20,20,0.917743039157,0.880942990526,0.748003894839,0.807609942015,7.4,22.6,0.848396917845,0.873417721519,0.69696969697,0.775280898876,10,30
log2,2,"{0: 0.75, 1: 1.5}",20,20,0.917105975983,0.876271948653,0.715027588445,0.786815096962,7.4,23.2,0.858497927946,0.876543209877,0.717171717172,0.788888888889,10,28
,2,"{0: 1, 1: 1}",25,20,0.914650592732,0.858509298545,0.717332035054,0.780363488988,8.2,21.0,0.823126806464,0.842105263158,0.646464646465,0.731428571429,12,35
sqrt,2,"{0: 1, 1: 1}",25,20,0.916916991809,0.86830559611,0.70723790977,0.77863263964,6.4,21.6,0.813052175555,0.87323943662,0.626262626263,0.729411764706,9,37
log2,2,"{0: 1, 1: 1}",25,20,0.917575138032,0.870628758127,0.717429406037,0.784420171535,7.8,22.6,0.873640650033,0.870588235294,0.747474747475,0.804347826087,11,25
,2,"{0: 0.5, 1: 2}",25,20,0.914197119076,0.856441287018,0.72505679974,0.78254848663,11.2,18.6,0.853465009023,0.897435897436,0.707070707071,0.790960451977,8,29
sqrt,2,"{0: 0.5, 1: 2}",25,20,0.920120413459,0.823601134717,0.730282375852,0.773356837709,9.6,18.8,0.84834415946,0.811764705882,0.69696969697,0.75,16,30
log2,2,"{0: 0.5, 1: 2}",25,20,0.919816066981,0.851770387067,0.725186627718,0.78288981632,11.4,21.8,0.878673568955,0.852272727273,0.757575757576,0.802139037433,13,24
,2,"{0: 0.75, 1: 1.5}",25,20,0.922735715985,0.859184777743,0.773677377475,0.814019912601,12.4,20.8,0.86355722606,0.888888888889,0.727272727273,0.8,9,27
sqrt,2,"{0: 0.75, 1: 1.5}",25,20,0.91533815528,0.878095126124,0.719896137618,0.788429339058,9.2,21.2,0.833219023501,0.835443037975,0.666666666667,0.741573033708,13,33
log2,2,"{0: 0.75, 1: 1.5}",25,20,0.917934709181,0.88912414878,0.720220707562,0.794633929588,10.0,20.8,0.868642903367,0.935897435897,0.737373737374,0.824858757062,5,26
,2,"{0: 1, 1: 1}",30,20,0.919289568687,0.854032986044,0.735507951964,0.789800984184,10.6,19.4,0.853465009023,0.897435897436,0.707070707071,0.790960451977,8,29
sqrt,2,"{0: 1, 1: 1}",30,20,0.922984668032,0.882673203644,0.748198636806,0.809112768958,8.8,20.2,0.833271781885,0.904109589041,0.666666666667,0.767441860465,7,33
log2,2,"{0: 1, 1: 1}",30,20,0.92067669419,0.878012643565,0.717494320026,0.787867884345,12.0,22.0,0.843320033602,0.83950617284,0.686868686869,0.755555555556,13,31
,2,"{0: 0.5, 1: 2}",30,20,0.917084509501,0.8573573823,0.771113274911,0.81126817483,11.6,16.6,0.883706487878,0.835164835165,0.767676767677,0.8,15,23
sqrt,2,"{0: 0.5, 1: 2}",30,20,0.923984752799,0.810269229588,0.750697825381,0.779043453958,12.4,21.4,0.863522053804,0.847058823529,0.727272727273,0.782608695652,13,27
log2,2,"{0: 0.5, 1: 2}",30,20,0.929114471979,0.799838518939,0.742810775722,0.768500705611,12.0,21.6,0.868537386598,0.811111111111,0.737373737374,0.772486772487,17,26
,2,"{0: 0.75, 1: 1.5}",30,20,0.916781959914,0.834550514845,0.750665368387,0.789837458313,10.0,20.0,0.858409997305,0.78021978022,0.717171717172,0.747368421053,20,28
sqrt,2,"{0: 0.75, 1: 1.5}",30,20,0.921603009912,0.829329214269,0.735150925024,0.776281731397,10.2,21.2,0.853465009023,0.897435897436,0.707070707071,0.790960451977,8,29
log2,2,"{0: 0.75, 1: 1.5}",30,20,0.919857762133,0.88380952381,0.747971437845,0.807555331791,9.0,21.8,0.863539639932,0.867469879518,0.727272727273,0.791208791209,11,27
,2,"{0: 1, 1: 1}",35,20,0.925497792439,0.878918029108,0.763291139241,0.815644958448,10.0,18.4,0.843346412794,0.871794871795,0.686868686869,0.768361581921,10,31
sqrt,2,"{0: 1, 1: 1}",35,20,0.925082597589,0.881851784611,0.72505679974,0.79395759415,8.2,24.2,0.868616524175,0.901234567901,0.737373737374,0.811111111111,8,26
log2,2,"{0: 1, 1: 1}",35,20,0.921638848038,0.853053368143,0.668906199286,0.745937132545,7.4,22.2,0.858480341817,0.855421686747,0.717171717172,0.78021978022,12,28
,2,"{0: 0.5, 1: 2}",35,20,0.923305232451,0.810993543386,0.781239857189,0.794888663968,11.2,18.0,0.888774579056,0.855555555556,0.777777777778,0.814814814815,13,22
sqrt,2,"{0: 0.5, 1: 2}",35,20,0.927021647762,0.805376525941,0.758227848101,0.780476582655,13.0,20.0,0.873535133265,0.762886597938,0.747474747475,0.755102040816,23,25
log2,2,"{0: 0.5, 1: 2}",35,20,0.921592993334,0.796363702343,0.750567997403,0.772239238741,15.2,21.2,0.868616524175,0.901234567901,0.737373737374,0.811111111111,8,26
,2,"{0: 0.75, 1: 1.5}",35,20,0.911735363251,0.815245683078,0.79652710159,0.805480694633,12.8,18.6,0.868616524175,0.901234567901,0.737373737374,0.811111111111,8,26
sqrt,2,"{0: 0.75, 1: 1.5}",35,20,0.929347532778,0.861406401954,0.725219084713,0.785861362679,8.8,22.0,0.873667029225,0.90243902439,0.747474747475,0.817679558011,8,25
log2,2,"{0: 0.75, 1: 1.5}",35,20,0.914783660516,0.849448322782,0.732911392405,0.783996818689,10.4,21.8,0.86355722606,0.888888888889,0.727272727273,0.8,9,27
,2,"{0: 1, 1: 1}",40,20,0.913716895395,0.85551080379,0.760727036676,0.803857519078,9.2,20.4,0.873640650033,0.870588235294,0.747474747475,0.804347826087,11,25
sqrt,2,"{0: 1, 1: 1}",40,20,0.924210789457,0.857705962068,0.725154170724,0.785358907173,8.2,22.0,0.848440883165,0.932432432432,0.69696969697,0.797687861272,5,30
log2,2,"{0: 1, 1: 1}",40,20,0.911416031812,0.870167388167,0.684063615709,0.760549218082,7.2,21.6,0.838295907744,0.87012987013,0.676767676768,0.761363636364,10,32
,2,"{0: 0.5, 1: 2}",40,20,0.919356253258,0.825633031942,0.763420967218,0.792145320589,15.2,17.0,0.878664775891,0.842696629213,0.757575757576,0.797872340426,14,24
sqrt,2,"{0: 0.5, 1: 2}",40,20,0.926787940178,0.809601999088,0.743005517689,0.772904403645,16.8,17.8,0.848326573332,0.793103448276,0.69696969697,0.741935483871,18,30
log2,2,"{0: 0.5, 1: 2}",40,20,0.928398565476,0.812507759381,0.75829276209,0.782889537804,12.4,22.8,0.878691155084,0.872093023256,0.757575757576,0.810810810811,11,24
,2,"{0: 0.75, 1: 1.5}",40,20,0.923429411491,0.836956084178,0.776111652061,0.804915853333,12.4,19.4,0.88373286707,0.863636363636,0.767676767677,0.812834224599,12,23
sqrt,2,"{0: 0.75, 1: 1.5}",40,20,0.923445231041,0.817673992674,0.722557611165,0.766201668674,11.6,20.2,0.868581351918,0.858823529412,0.737373737374,0.79347826087,12,26
log2,2,"{0: 0.75, 1: 1.5}",40,20,0.920125946051,0.841786524459,0.745602077248,0.788613326362,12.2,21.8,0.868537386598,0.811111111111,0.737373737374,0.772486772487,17,26
,2,"{0: 1, 1: 1}",45,20,0.916485945006,0.840836063239,0.735248296008,0.782882097925,10.2,18.4,0.838269528551,0.8375,0.676767676768,0.748603351955,13,32
sqrt,2,"{0: 1, 1: 1}",45,20,0.918171154004,0.850724353732,0.720090879585,0.77843006388,9.2,23.2,0.818120266734,0.9,0.636363636364,0.745562130178,7,36
log2,2,"{0: 1, 1: 1}",45,20,0.922446207839,0.848317087181,0.694514767932,0.760298977491,8.8,23.8,0.838313493872,0.893333333333,0.676767676768,0.770114942529,8,32
,2,"{0: 0.5, 1: 2}",45,20,0.91535301924,0.801888007055,0.750860110354,0.773834231704,18.6,15.4,0.863548432996,0.878048780488,0.727272727273,0.795580110497,10,27
sqrt,2,"{0: 0.5, 1: 2}",45,20,0.92790592465,0.792728088879,0.755793573515,0.772627413331,14.0,19.0,0.878585638315,0.765306122449,0.757575757576,0.761421319797,23,24
log2,2,"{0: 0.5, 1: 2}",45,20,0.926490173378,0.786436653446,0.750600454398,0.767267892156,12.6,18.2,0.873596684713,0.822222222222,0.747474747475,0.783068783069,16,25
,2,"{0: 0.75, 1: 1.5}",45,20,0.930159258768,0.829681900693,0.768614086336,0.797887533403,16.2,17.8,0.868572558854,0.848837209302,0.737373737374,0.789189189189,13,26
sqrt,2,"{0: 0.75, 1: 1.5}",45,20,0.923583324718,0.848827283166,0.75076273937,0.796357842382,14.4,20.6,0.858427583433,0.797752808989,0.717171717172,0.755319148936,18,28
log2,2,"{0: 0.75, 1: 1.5}",45,20,0.926553173406,0.843380624895,0.727653359299,0.78044906639,12.2,21.4,0.868581351918,0.858823529412,0.737373737374,0.79347826087,12,26
,2,"{0: 1, 1: 1}",50,20,0.923209022734,0.844539781375,0.750567997403,0.791907811487,11.6,20.4,0.853412250639,0.833333333333,0.707070707071,0.765027322404,14,29
