max_depth,vroc_auc,vprecision,vrecall,vf1,vfp,vfn,troc_auc,tprecision,trecall,tf1,tfp,tfn
20,0.918540247725,0.940975631136,0.763356053229,0.842483473973,4.2,19.2,0.878743913468,0.9375,0.757575757576,0.837988826816,5,24
40,0.923358167738,0.948495375592,0.753034728984,0.838781577387,3.6,18.8,0.883803211582,0.95,0.767676767677,0.849162011173,4,23
60,0.931024244322,0.940730945604,0.76082440766,0.840848450849,3.6,21.2,0.868642903367,0.935897435897,0.737373737374,0.824858757062,5,26
80,0.930967327145,0.931915490488,0.748068808828,0.829368033746,4.4,20.0,0.868642903367,0.935897435897,0.737373737374,0.824858757062,5,26
100,0.929726802272,0.944249623876,0.763323596235,0.843901911978,4.0,20.4,0.878752706532,0.949367088608,0.757575757576,0.842696629213,4,24
120,0.927175640252,0.937131540055,0.758260305096,0.838126790135,3.0,18.0,0.878761499596,0.961538461538,0.757575757576,0.847457627119,3,24
140,0.92463903598,0.922927668524,0.750632911392,0.827349930001,4.0,19.2,0.883812004646,0.962025316456,0.767676767677,0.85393258427,3,23
160,0.923348261849,0.924593453142,0.763420967218,0.835371792823,3.4,20.4,0.873702201481,0.948717948718,0.747474747475,0.83615819209,4,25
180,0.927219571945,0.935095853547,0.750697825381,0.832186026585,3.0,19.8,0.878752706532,0.949367088608,0.757575757576,0.842696629213,4,24
200,0.920822720602,0.923142547461,0.753132099968,0.829048907567,5.2,19.4,0.873702201481,0.948717948718,0.747474747475,0.83615819209,4,25
220,0.927197127179,0.939319515529,0.778675754625,0.85109139047,3.8,19.6,0.873684615353,0.925,0.747474747475,0.826815642458,6,25
240,0.925917908851,0.95133285288,0.77364492048,0.852088519261,3.2,18.6,0.878761499596,0.961538461538,0.757575757576,0.847457627119,3,24
260,0.933574733574,0.94042876373,0.76082440766,0.840706351707,4.0,18.8,0.868642903367,0.935897435897,0.737373737374,0.824858757062,5,26
280,0.9271745958,0.937521761393,0.755696202532,0.83669236567,2.6,19.0,0.873702201481,0.948717948718,0.747474747475,0.83615819209,4,25
300,0.925896151517,0.933310447815,0.74547224927,0.82865929927,3.4,18.6,0.868651696431,0.948051948052,0.737373737374,0.829545454545,4,26
320,0.928445551311,0.93834384293,0.760921778643,0.839775240684,4.0,19.0,0.868651696431,0.948051948052,0.737373737374,0.829545454545,4,26
340,0.934853851306,0.946650308425,0.758357676079,0.841174830292,2.8,19.4,0.878735120404,0.925925925926,0.757575757576,0.833333333333,6,24
360,0.924649502323,0.939143207107,0.748003894839,0.832679802303,4.6,18.8,0.873675822289,0.913580246914,0.747474747475,0.822222222222,7,25
380,0.929731854686,0.936719583383,0.745504706264,0.829764036873,5.2,18.6,0.873702201481,0.948717948718,0.747474747475,0.83615819209,4,25
400,0.925883806384,0.931501947873,0.758195391107,0.835853629938,3.2,18.2,0.853508974343,0.958904109589,0.707070707071,0.813953488372,3,29
420,0.923372749878,0.940427190968,0.76582278481,0.843968618239,4.2,20.8,0.878743913468,0.9375,0.757575757576,0.837988826816,5,24
440,0.925918649456,0.947877895194,0.742875689711,0.83287363158,4.0,18.2,0.883794418518,0.938271604938,0.767676767677,0.844444444444,5,23
460,0.925906283629,0.952598126145,0.758357676079,0.843985519728,3.8,20.6,0.883803211582,0.95,0.767676767677,0.849162011173,4,23
480,0.929716686992,0.929670181969,0.765985069783,0.839468994016,4.2,19.0,0.878743913468,0.9375,0.757575757576,0.837988826816,5,24
500,0.924629923578,0.941074241971,0.753229470951,0.836247165171,3.8,18.4,0.868642903367,0.935897435897,0.737373737374,0.824858757062,5,26
520,0.923371595651,0.94289617706,0.750665368387,0.835285354675,3.8,17.6,0.86360119138,0.947368421053,0.727272727273,0.822857142857,4,27
540,0.928464315426,0.935161447664,0.763420967218,0.840124797383,4.0,18.0,0.873702201481,0.948717948718,0.747474747475,0.83615819209,4,25
560,0.929690258067,0.948903010426,0.750535540409,0.83795595789,4.2,18.6,0.878735120404,0.925925925926,0.757575757576,0.833333333333,6,24
580,0.925891433707,0.937363900467,0.753229470951,0.833844531528,4.8,19.2,0.878752706532,0.949367088608,0.757575757576,0.842696629213,4,24
600,0.925885892084,0.946754694112,0.719993508601,0.817504993475,3.6,18.6,0.868642903367,0.935897435897,0.737373737374,0.824858757062,5,26
620,0.925922299317,0.934875350638,0.748133722817,0.830611509576,4.2,19.4,0.868651696431,0.948051948052,0.737373737374,0.829545454545,4,26
640,0.930997129061,0.94385844949,0.75829276209,0.840385282165,3.6,19.2,0.873702201481,0.948717948718,0.747474747475,0.83615819209,4,25
660,0.925904953564,0.93836112866,0.765920155794,0.84256332041,4.0,19.2,0.888836130505,0.927710843373,0.777777777778,0.846153846154,6,22
680,0.92337591431,0.943105759392,0.745439792275,0.831879524763,5.0,19.2,0.883785625454,0.926829268293,0.767676767677,0.839779005525,6,23
700,0.924620191382,0.940634884023,0.760759493671,0.840541615707,3.4,19.8,0.878761499596,0.961538461538,0.757575757576,0.847457627119,3,24
720,0.925882008858,0.938780087171,0.765887698799,0.843070785598,4.4,18.8,0.873702201481,0.948717948718,0.747474747475,0.83615819209,4,25
740,0.920837623465,0.934666032728,0.755663745537,0.835329591384,4.0,19.6,0.878735120404,0.925925925926,0.757575757576,0.833333333333,6,24
760,0.925924428957,0.943190842131,0.763420967218,0.84348017408,3.6,19.2,0.878743913468,0.9375,0.757575757576,0.837988826816,5,24
780,0.930991882829,0.928489195081,0.753229470951,0.831229348545,4.0,21.0,0.863592398316,0.935064935065,0.727272727273,0.818181818182,5,27
800,0.928443764676,0.941706761436,0.74040895813,0.828792847261,3.4,17.8,0.868634110303,0.924050632911,0.737373737374,0.820224719101,6,26
820,0.924644212173,0.94442692312,0.768484258358,0.846702625976,3.8,18.2,0.883812004646,0.962025316456,0.767676767677,0.85393258427,3,23
840,0.929741249121,0.929864563297,0.773547549497,0.844397226269,4.0,18.4,0.87877029266,0.974025974026,0.757575757576,0.852272727273,2,24
860,0.925899774268,0.935949495413,0.740441415125,0.82640615441,2.8,19.2,0.868651696431,0.948051948052,0.737373737374,0.829545454545,4,26
880,0.927187414755,0.946057874763,0.755761116521,0.839754982627,4.6,18.8,0.86360119138,0.947368421053,0.727272727273,0.822857142857,4,27
